…
    ## $ state                 <chr> "Ca California", "Ca Iowa", "Ca California", "D.…
    ## $ country               <chr> "Usa", "Usa", "Usa", "Usa", "Usa", "Usa", "Singa…
    ## $ date                  <date> 2025-10-02, 2025-10-01, 2025-09-30, 2025-09-30,…
    ## $ party                 <chr> "Lawyer", "Lawyer", "Pro Se Litigant", "Expert",…
    ## $ ai_tool               <chr> "Unidentified", "Unidentified", "Implied", "Chat…
    ## $ hallucination         <chr> "Fake Citation", "Fake Citation", "Fake Citation…
    ## $ outcome               <chr> "Penalized", "Penalized", "Warning", "Dismissed"…
    ## $ monetary_penalty      <chr> "1500 Usd", "150 Usd", NA, NA, NA, NA, "800", NA…
    ## $ professional_sanction <chr> "Yes", "Yes", "No", "No", "No", "No", "No", "No"…
    ## $ key_principle         <chr> NA, NA, NA, NA, NA, NA, NA, NA, NA, NA, NA, NA, …
    ## $ pointer               <chr> "Volokh", NA, NA, NA, NA, NA, NA, NA, NA, NA, "V…
    ## $ source                <chr> "https://reason.com/volokh/2025/10/04/court-espe…
    ## $ details               <chr> "\"When criminal defense attorneys fail to compl…
    ## $ currency              <chr> "USD", "USD", "USD", "USD", "USD", "USD", "USD",…
    ## # A tibble: 426 × 15
    ##    case_name        state country date       party ai_tool hallucination outcome
    ##    <chr>            <chr> <chr>   <date>     <chr> <chr>   <chr>         <chr>  
    ##  1 The People v. R… Ca C… Usa     2025-10-02 Lawy… Uniden… Fake Citation Penali…
    ##  2 In the Interest… Ca I… Usa     2025-10-01 Lawy… Uniden… Fake Citation Penali…
    ##  3 In re the Marri… Ca C… Usa     2025-09-30 Pro … Implied Fake Citation Warning
    ##  4 Khoury et al v.… D. U… Usa     2025-09-30 Expe… ChatGPT Fake Source/… Dismis…
    ##  5 Tomlin v. State… D. N… Usa     2025-09-30 Pro … Implied Fake Citation Warning
    ##  6 Munoz v. Lopez   Ca C… Usa     2025-09-29 Pro … Implied Fake Citation Warning
    ##  7 Tajudin bin Gul… High… Singap… 2025-09-29 Lawy… Uniden… Fake Citation Costs …
    ##  8 Chapter Kris Ja… N.d.… Usa     2025-09-29 Pro … Implied Fake Citation Show C…
    ##  9 Jade Riley Burc… D. N… Usa     2025-09-26 Pro … Uniden… Fake Citation Warning
    ## 10 Reddy v Saroya   Ca A… Canada  2025-09-26 Lawy… Implied Fake Citation <NA>   
    ## # ℹ 416 more rows
    ## # ℹ 7 more variables: monetary_penalty <chr>, professional_sanction <chr>,
    ## #   key_principle <chr>, pointer <chr>, source <chr>, details <chr>,
    ## #   currency <chr>
…
